Condition	Sylvestris_O34_16_Erysiphe_1DPI_vs_Control_Sylvestris_O34_16_1DPI	Sylvestris_O34_16_Erysiphe_5DPI_vs_Control_Sylvestris_O34_16_5DPI	L_Carignane_Erysiphe_1DPI_vs_Control_L_Carignane_1DPI	L_Carignane_Erysiphe_5DPI_vs_Control_L_Carignane_5DPI	Sativa_Husseine_Erysiphe_1DPI_vs_Control_Sativa_Husseine_1DPI	Sativa_Husseine_Erysiphe_5DPI_vs_Control_Sativa_Husseine_5DPI	Sativa_Karadzhandal_Erysiphe_1DPI_vs_Control_Sativa_Karadzhandal_1DPI	Sativa_Karadzhandal_Erysiphe_5DPI_vs_Control_Sativa_Karadzhandal_5DPI	Sativa_Khalchili_Erysiphe_1DPI_vs_Control_Sativa_Khalchili_1DPI	Sativa_Khalchili_Erysiphe_5DPI_vs_Control_Sativa_Khalchili_5DPI	Sativa_Late_Vavilov_Erysiphe_1DPI_vs_Control_Sativa_Late_Vavilov_1DPI	Sativa_Late_Vavilov_Erysiphe_5DPI_vs_Control_Sativa_Late_Vavilov_5DPI	Sativa_Sochal_Erysiphe_1DPI_vs_Control_Sativa_Sochal_1DPI	Sativa_Sochal_Erysiphe_5DPI_vs_Control_Sativa_Sochal_5DPI	Sylvestris_DVIT3351_27_Erysiphe_1DPI_vs_Control_Sylvestris_DVIT3351_27_Control_1DPI	Sylvestris_DVIT3351_27_Erysiphe_5DPI_vs_Control_Sylvestris_DVIT3351_27_Control_5DPI	Erysiphe_vs_control	1DPI_vs_5DPI
Sylvestris_O34_16_Erysiphe_1DPI	+	0	0	0	0	0	0	0	0	0	0	0	0	0	0	0	+	+
Sylvestris_O34_16_Erysiphe_5DPI	0	+	0	0	0	0	0	0	0	0	0	0	0	0	0	0	+	-
L_Carignane_Erysiphe_1DPI	0	0	+	0	0	0	0	0	0	0	0	0	0	0	0	0	+	+
L_Carignane_Erysiphe_5DPI	0	0	0	+	0	0	0	0	0	0	0	0	0	0	0	0	+	-
Sativa_Husseine_Erysiphe_1DPI	0	0	0	0	+	0	0	0	0	0	0	0	0	0	0	0	+	+
Sativa_Husseine_Erysiphe_5DPI	0	0	0	0	0	+	0	0	0	0	0	0	0	0	0	0	+	-
Sativa_Karadzhandal_Erysiphe_1DPI	0	0	0	0	0	0	+	0	0	0	0	0	0	0	0	0	+	+
Sativa_Karadzhandal_Erysiphe_5DPI	0	0	0	0	0	0	0	+	0	0	0	0	0	0	0	0	+	-
Sativa_Khalchili_Erysiphe_1DPI	0	0	0	0	0	0	0	0	+	0	0	0	0	0	0	0	+	+
Sativa_Khalchili_Erysiphe_5DPI	0	0	0	0	0	0	0	0	0	+	0	0	0	0	0	0	+	-
Sativa_Late_Vavilov_Erysiphe_1DPI	0	0	0	0	0	0	0	0	0	0	+	0	0	0	0	0	+	+
Sativa_Late_Vavilov_Erysiphe_5DPI	0	0	0	0	0	0	0	0	0	0	0	+	0	0	0	0	+	-
Sativa_Sochal_Erysiphe_1DPI	0	0	0	0	0	0	0	0	0	0	0	0	+	0	0	0	+	+
Sativa_Sochal_Erysiphe_5DPI	0	0	0	0	0	0	0	0	0	0	0	0	0	+	0	0	+	-
Sylvestris_DVIT3351_27_Erysiphe_1DPI	0	0	0	0	0	0	0	0	0	0	0	0	0	0	+	0	+	+
Sylvestris_DVIT3351_27_Erysiphe_5DPI	0	0	0	0	0	0	0	0	0	0	0	0	0	0	0	+	+	-
Control_Sylvestris_O34_16_1DPI	-	0	0	0	0	0	0	0	0	0	0	0	0	0	0	0	-	+
Control_Sylvestris_O34_16_5DPI	0	-	0	0	0	0	0	0	0	0	0	0	0	0	0	0	-	-
Control_L_Carignane_1DPI	0	0	-	0	0	0	0	0	0	0	0	0	0	0	0	0	-	+
Control_L_Carignane_5DPI	0	0	0	-	0	0	0	0	0	0	0	0	0	0	0	0	-	-
Control_Sativa_Husseine_1DPI	0	0	0	0	-	0	0	0	0	0	0	0	0	0	0	0	-	+
Control_Sativa_Husseine_5DPI	0	0	0	0	0	-	0	0	0	0	0	0	0	0	0	0	-	-
Control_Sativa_Karadzhandal_1DPI	0	0	0	0	0	0	-	0	0	0	0	0	0	0	0	0	-	+
Control_Sativa_Karadzhandal_5DPI	0	0	0	0	0	0	0	-	0	0	0	0	0	0	0	0	-	-
Control_Sativa_Khalchili_1DPI	0	0	0	0	0	0	0	0	-	0	0	0	0	0	0	0	-	+
Control_Sativa_Khalchili_5DPI	0	0	0	0	0	0	0	0	0	-	0	0	0	0	0	0	-	-
Control_Sativa_Late_Vavilov_1DPI	0	0	0	0	0	0	0	0	0	0	-	0	0	0	0	0	-	+
Control_Sativa_Late_Vavilov_5DPI	0	0	0	0	0	0	0	0	0	0	0	-	0	0	0	0	-	-
Control_Sativa_Sochal_1DPI	0	0	0	0	0	0	0	0	0	0	0	0	-	0	0	0	-	+
Control_Sativa_Sochal_5DPI	0	0	0	0	0	0	0	0	0	0	0	0	0	-	0	0	-	-
Control_Sylvestris_DVIT3351_27_Control_1DPI	0	0	0	0	0	0	0	0	0	0	0	0	0	0	-	0	-	+
Control_Sylvestris_DVIT3351_27_Control_5DPI	0	0	0	0	0	0	0	0	0	0	0	0	0	0	0	-	-	-
